{
    "name": "type",
    "data": [
        {"name": "team", "time": 14},
        {"name": "single", "time": 20}
    ],
    "enum": [
        {"name": "team", "id": 1},
        {"name": "single", "id": 2}
    ]
}