{
    "name": "role",
    "data": [
        {"name":"user"}, 
        {"name":"editor"}, 
        {"name":"admin"}
    ],
    "enum": [
        {"name": "user", "id": 1},
        {"name": "editor", "id": 2},
        {"name": "admin", "id": 3}
    ]
}